<svg width="42" height="62" viewBox="0 0 42 62" fill="none" xmlns="http://www.w3.org/2000/svg">
<g clip-path="url(#clip0)">
<path d="M10.752 62C16.4089 62 21 57.3706 21 51.6666V41.3333H10.752C5.09517 41.3333 0.504089 45.9626 0.504089 51.6666C0.504089 57.3706 5.09517 62 10.752 62Z" fill="#0ACF83"/>
<path d="M0.504089 31C0.504089 25.296 5.09517 20.6667 10.752 20.6667H21V41.3334H10.752C5.09517 41.3334 0.504089 36.704 0.504089 31Z" fill="#A259FF"/>
<path d="M0.504822 10.3333C0.504822 4.62934 5.0959 7.62939e-06 10.7528 7.62939e-06H21.0007V20.6667H10.7528C5.0959 20.6667 0.504822 16.0373 0.504822 10.3333Z" fill="#F24E1E"/>
<path d="M21 7.62939e-06H31.248C36.9048 7.62939e-06 41.4959 4.62934 41.4959 10.3333C41.4959 16.0373 36.9048 20.6667 31.248 20.6667H21V7.62939e-06Z" fill="#FF7262"/>
<path d="M41.4959 31C41.4959 36.704 36.9048 41.3334 31.248 41.3334C25.5911 41.3334 21 36.704 21 31C21 25.296 25.5911 20.6667 31.248 20.6667C36.9048 20.6667 41.4959 25.296 41.4959 31Z" fill="#1ABCFE"/>
</g>
<defs>
<clipPath id="clip0">
<rect width="41" height="62" fill="white" transform="translate(0.5)"/>
</clipPath>
</defs>
</svg>
